%YAML 1.1
%TAG !u! tag:unity3d.com,2011:
--- !u!114 &11400000
MonoBehaviour:
  m_ObjectHideFlags: 0
  m_CorrespondingSourceObject: {fileID: 0}
  m_PrefabInstance: {fileID: 0}
  m_PrefabAsset: {fileID: 0}
  m_GameObject: {fileID: 0}
  m_Enabled: 1
  m_EditorHideFlags: 0
  m_Script: {fileID: 11500000, guid: 0b7cb2115bb8d814c8e5022de04471f1, type: 3}
  m_Name: None
  m_EditorClassIdentifier: 
  Typeof: 0
  ItemGameObject: {fileID: 0}
  ItemSprite: {fileID: 21300000, guid: 62d80ba99d4b5764b8bb1b89415ada5e, type: 3}
