%YAML 1.1
%TAG !u! tag:unity3d.com,2011:
--- !u!114 &11400000
MonoBehaviour:
  m_ObjectHideFlags: 0
  m_CorrespondingSourceObject: {fileID: 0}
  m_PrefabInstance: {fileID: 0}
  m_PrefabAsset: {fileID: 0}
  m_GameObject: {fileID: 0}
  m_Enabled: 1
  m_EditorHideFlags: 0
  m_Script: {fileID: 11500000, guid: 0b7cb2115bb8d814c8e5022de04471f1, type: 3}
  m_Name: Ring
  m_EditorClassIdentifier: 
  Typeof: 5
  ItemGameObject: {fileID: 1022578813575509209, guid: 25e1ef202f0ef96479e64f362fb15a59,
    type: 3}
  ItemSprite: {fileID: 21300000, guid: 28cd2f18fca961844a85bf01641fb967, type: 3}
